# Rhino

o object_1
v -0.6376853585 0.1483266056 -4.440891999e-18
v -0.6376853585 0.4499999881 0
v -0.1876853853 0.1483266056 0
v -0.1876853853 0.4499999881 0
v -0.1876853853 0.1483266056 0
v -0.1876853853 0.4499999881 0
v -0.1876853853 0.1483266056 -0.4499999881
v -0.1876853853 0.4499999881 -0.4499999881
v -0.1876853853 0.1483266056 -0.4499999881
v -0.1876853853 0.4499999881 -0.4499999881
v -0.6376853585 0.1483266056 -0.4499999881
v -0.6376853585 0.4499999881 -0.4499999881
v -0.6376853585 0.1483266056 -0.4499999881
v -0.6376853585 0.4499999881 -0.4499999881
v -0.6376853585 0.1483266056 -4.440891999e-18
v -0.6376853585 0.4499999881 0
v -0.6376853585 0.4499999881 0
v -0.6376853585 0.4499999881 -0.4499999881
v -0.1876853853 0.4499999881 0
v -0.1876853853 0.4499999881 -0.4499999881
v -0.6376853585 0.1483266056 -4.440891999e-18
v -0.6376853585 0.1483266056 -0.4499999881
v -0.1876853853 0.1483266056 0
v -0.1876853853 0.1483266056 -0.4499999881
vn 0 0 1
vn 0 0 1
vn 0 0 1
vn 0 0 1
vn 1 0 -2.168404345e-17
vn 1 0 0
vn 1 0 -2.168404345e-17
vn 1 0 0
vn -4.33680869e-17 0 -1
vn 0 0 -1
vn -4.33680869e-17 0 -1
vn 0 0 -1
vn -1 0 -8.67361738e-17
vn -1 0 0
vn -1 0 -8.67361738e-17
vn -1 0 0
vn 0 1 0
vn 0 1 0
vn 0 1 0
vn 0 1 0
vn 1.084202172e-17 -1 0
vn 0 -1 0
vn 1.084202172e-17 -1 0
vn 0 -1 0
f 2//2 1//1 3//3 4//4
f 6//6 5//5 7//7 8//8
f 10//10 9//9 11//11 12//12
f 14//14 13//13 15//15 16//16
f 18//18 17//17 19//19 20//20
f 22//22 24//24 23//23 21//21
o object_2
v -0.5664003491 0 -0.03945555165
v -0.5664003491 0.1483266056 -0.03945555165
v -0.5664003491 0 -0.05938449129
v -0.5664003491 0.1483266056 -0.05938449129
v -0.5664003491 0 -0.05938449129
v -0.5664003491 0.1483266056 -0.05938449129
v -0.5870410204 0 -0.05938449129
v -0.5870410204 0.1483266056 -0.05938449129
v -0.5870410204 0 -0.05938449129
v -0.5870410204 0.1483266056 -0.05938449129
v -0.5870410204 0 -0.03945555165
v -0.5870410204 0.1483266056 -0.03945555165
v -0.5870410204 0 -0.03945555165
v -0.5870410204 0.1483266056 -0.03945555165
v -0.5664003491 0 -0.03945555165
v -0.5664003491 0.1483266056 -0.03945555165
v -0.5664003491 0 -0.03945555165
v -0.5664003491 0 -0.05938449129
v -0.5870410204 0 -0.05938449129
v -0.5870410204 0 -0.03945555165
v -0.5664003491 0.1483266056 -0.03945555165
v -0.5664003491 0.1483266056 -0.05938449129
v -0.5870410204 0.1483266056 -0.05938449129
v -0.5870410204 0.1483266056 -0.03945555165
vn 1 0 0
vn 1 0 0
vn 1 0 0
vn 1 0 0
vn 0 0 -1
vn 0 0 -1
vn 0 0 -1
vn 0 0 -1
vn -1 0 0
vn -1 0 0
vn -1 0 0
vn -1 0 0
vn 0 0 1
vn 0 0 1
vn 0 0 1
vn 0 0 1
vn 0 -1 0
vn 0 -1 0
vn 0 -1 0
vn 0 -1 0
vn 0 1 0
vn 0 1 0
vn 0 1 0
vn 0 1 0
f 25//25 27//27 28//28 26//26
f 29//29 31//31 32//32 30//30
f 33//33 35//35 36//36 34//34
f 37//37 39//39 40//40 38//38
f 41//41 44//44 43//43
f 43//43 42//42 41//41
f 45//45 47//47 48//48
f 47//47 45//45 46//46
o object_3
v -0.2582191527 0 -0.04963085428
v -0.2582191527 0.1483266056 -0.04963085428
v -0.2375784665 0 -0.04963085428
v -0.2375784665 0.1483266056 -0.04963085428
v -0.2375784665 0 -0.04963085428
v -0.2375784665 0.1483266056 -0.04963085428
v -0.2375784665 0 -0.06955979019
v -0.2375784665 0.1483266056 -0.06955979019
v -0.2375784665 0 -0.06955979019
v -0.2375784665 0.1483266056 -0.06955979019
v -0.2582191527 0 -0.06955979019
v -0.2582191527 0.1483266056 -0.06955979019
v -0.2582191527 0 -0.06955979019
v -0.2582191527 0.1483266056 -0.06955979019
v -0.2582191527 0 -0.04963085428
v -0.2582191527 0.1483266056 -0.04963085428
v -0.2582191527 0 -0.04963085428
v -0.2375784665 0 -0.04963085428
v -0.2375784665 0 -0.06955979019
v -0.2582191527 0 -0.06955979019
v -0.2582191527 0.1483266056 -0.04963085428
v -0.2375784665 0.1483266056 -0.04963085428
v -0.2375784665 0.1483266056 -0.06955979019
v -0.2582191527 0.1483266056 -0.06955979019
vn 0 0 1
vn 0 0 1
vn 0 0 1
vn 0 0 1
vn 1 0 0
vn 1 0 0
vn 1 0 0
vn 1 0 0
vn 0 0 -1
vn 0 0 -1
vn 0 0 -1
vn 0 0 -1
vn -1 0 0
vn -1 0 0
vn -1 0 0
vn -1 0 0
vn 0 -1 0
vn 0 -1 0
vn 0 -1 0
vn 0 -1 0
vn 0 1 0
vn 0 1 0
vn 0 1 0
vn 0 1 0
f 49//49 51//51 52//52 50//50
f 53//53 55//55 56//56 54//54
f 57//57 59//59 60//60 58//58
f 61//61 63//63 64//64 62//62
f 66//66 65//65 68//68
f 68//68 67//67 66//66
f 70//70 72//72 69//69
f 72//72 70//70 71//71
o object_4
v -0.5883512497 0 -0.3798620105
v -0.5883512497 0.1483266056 -0.3798620105
v -0.5677105188 0 -0.3798620105
v -0.5677105188 0.1483266056 -0.3798620105
v -0.5677105188 0 -0.3798620105
v -0.5677105188 0.1483266056 -0.3798620105
v -0.5677105188 0 -0.3997909427
v -0.5677105188 0.1483266056 -0.3997909427
v -0.5677105188 0 -0.3997909427
v -0.5677105188 0.1483266056 -0.3997909427
v -0.5883512497 0 -0.3997909427
v -0.5883512497 0.1483266056 -0.3997909427
v -0.5883512497 0 -0.3997909427
v -0.5883512497 0.1483266056 -0.3997909427
v -0.5883512497 0 -0.3798620105
v -0.5883512497 0.1483266056 -0.3798620105
v -0.5883512497 0 -0.3798620105
v -0.5677105188 0 -0.3798620105
v -0.5677105188 0 -0.3997909427
v -0.5883512497 0 -0.3997909427
v -0.5883512497 0.1483266056 -0.3798620105
v -0.5677105188 0.1483266056 -0.3798620105
v -0.5677105188 0.1483266056 -0.3997909427
v -0.5883512497 0.1483266056 -0.3997909427
vn 0 0 1
vn 0 0 1
vn 0 0 1
vn 0 0 1
vn 1 0 0
vn 1 0 0
vn 1 0 0
vn 1 0 0
vn 0 0 -1
vn 0 0 -1
vn 0 0 -1
vn 0 0 -1
vn -1 0 0
vn -1 0 0
vn -1 0 0
vn -1 0 0
vn 0 -1 0
vn 0 -1 0
vn 0 -1 0
vn 0 -1 0
vn 0 1 0
vn 0 1 0
vn 0 1 0
vn 0 1 0
f 73//73 75//75 76//76 74//74
f 77//77 79//79 80//80 78//78
f 81//81 83//83 84//84 82//82
f 85//85 87//87 88//88 86//86
f 90//90 89//89 92//92
f 92//92 91//91 90//90
f 94//94 96//96 93//93
f 96//96 94//94 95//95
o object_5
v -0.2384741306 0 -0.3798620105
v -0.2384741306 0.1483266056 -0.3798620105
v -0.2384741306 0 -0.3997909427
v -0.2384741306 0.1483266056 -0.3997909427
v -0.2384741306 0 -0.3997909427
v -0.2384741306 0.1483266056 -0.3997909427
v -0.2591148019 0 -0.3997909427
v -0.2591148019 0.1483266056 -0.3997909427
v -0.2591148019 0 -0.3997909427
v -0.2591148019 0.1483266056 -0.3997909427
v -0.2591148019 0 -0.3798620105
v -0.2591148019 0.1483266056 -0.3798620105
v -0.2591148019 0 -0.3798620105
v -0.2591148019 0.1483266056 -0.3798620105
v -0.2384741306 0 -0.3798620105
v -0.2384741306 0.1483266056 -0.3798620105
v -0.2384741306 0 -0.3798620105
v -0.2384741306 0 -0.3997909427
v -0.2591148019 0 -0.3997909427
v -0.2591148019 0 -0.3798620105
v -0.2384741306 0.1483266056 -0.3798620105
v -0.2384741306 0.1483266056 -0.3997909427
v -0.2591148019 0.1483266056 -0.3997909427
v -0.2591148019 0.1483266056 -0.3798620105
vn 1 0 0
vn 1 0 0
vn 1 0 0
vn 1 0 0
vn 0 0 -1
vn 0 0 -1
vn 0 0 -1
vn 0 0 -1
vn -1 0 0
vn -1 0 0
vn -1 0 0
vn -1 0 0
vn 0 0 1
vn 0 0 1
vn 0 0 1
vn 0 0 1
vn 0 -1 0
vn 0 -1 0
vn 0 -1 0
vn 0 -1 0
vn 0 1 0
vn 0 1 0
vn 0 1 0
vn 0 1 0
f 97//97 99//99 100//100 98//98
f 101//101 103//103 104//104 102//102
f 105//105 107//107 108//108 106//106
f 109//109 111//111 112//112 110//110
f 113//113 116//116 115//115
f 115//115 114//114 113//113
f 117//117 119//119 120//120
f 119//119 117//117 118//118
