%YAML 1.1
%TAG !u! tag:unity3d.com,2011:
--- !u!1045 &1
EditorBuildSettings:
  m_ObjectHideFlags: 0
  serializedVersion: 2
  m_Scenes:
  - enabled: 0
    path: Assets/_Scenes/Abgabe/MainMenu.unity
    guid: e752629b568eb7943b659566ed50b926
  - enabled: 0
    path: Assets/_Scenes/Abgabe/Simulation014.unity
    guid: 7d699c24710598b4f819527ab249c5fb
  - enabled: 0
    path: Assets/_Scenes/Abgabe/MainMenu.unity
    guid: e752629b568eb7943b659566ed50b926
  - enabled: 0
    path: Assets/_Scenes/Abgabe/Simulation014.unity
    guid: 7d699c24710598b4f819527ab249c5fb
  - enabled: 0
    path: Assets/_Scenes/Abgabe/Simulation014Lucas.unity
    guid: 7f12d1ba33bf263408b7491dfc21fcda
  - enabled: 0
    path: Assets/_Scenes/Abgabe/_archive/Simulation000.unity
    guid: 1698f3027f3f3be448568384e1b2c923
  - enabled: 0
    path: Assets/_Scenes/Old/RestaurantLucas.unity
    guid: 145df3cdc0cf704428b03f5bab0b6744
  - enabled: 0
    path: Assets/_Scenes/videoP.unity
    guid: c46636faff6b0374288a461698e0d73c
  - enabled: 0
    path: Assets/_Scenes/Abgabe/Simulation016.unity
    guid: b3ac8240ac645bb4383f2f0048fc0cf2
  - enabled: 0
    path: Assets/_Scenes/Abgabe/Simulation015.unity
    guid: 0772f575df6367647a45270912384e8a
  - enabled: 0
    path: Assets/_Scenes/videoP/KoeniginHatKeinenBockMehr.unity
    guid: 14b799d72d13f394f92cfe12a034a234
  - enabled: 0
    path: Assets/_Scenes/videoP/KoeniginHatKeinenBockMehrPunkt.unity
    guid: 96eeb5f9da5fcbd48a08f595b2e45a48
  - enabled: 0
    path: Assets/_Scenes/videoP/DieKoenigingVerstehtDieWeltNicht.unity
    guid: a681bb6a00719da40a03a49bc36cff84
  - enabled: 0
    path: Assets/_Scenes/videoP/DieKoenigingVerstehtDieWeltNichtMehr.unity
    guid: 0c37c7b2ca7fd4c40b7561205d9c9617
  - enabled: 1
    path: Assets/_Scenes/Abgabe/Simulation024.unity
    guid: 1395a3211794fc042a9da70a318a5f00
