# Rhino

mtllib Test_m.mtl
g Standard
o object_1
usemtl Nussbaumholz
v 0.4003691101074219 1.189314730254409e-09 -0.3794661865234375
v 0.4003691101074219 7.673972959310049e-10 -0.4001068725585938
v 0.4003691101074219 7.673972959310049e-10 -0.4001068725585938
v 0.3804401550292969 -5.829440965499089e-10 -0.4001068725585938
v 0.3804401550292969 -5.829440965499089e-10 -0.4001068725585938
v 0.3804401550292969 -7.663462383789011e-09 -0.3794661865234375
v 0.3804401550292969 -7.663462383789011e-09 -0.3794661865234375
v 0.4003691101074219 1.189314730254409e-09 -0.3794661865234375
v 0.4003691101074219 1.189314730254409e-09 -0.3794661865234375
v 0.4003691101074219 7.673972959310049e-10 -0.4001068725585938
v 0.3804401550292969 -5.829440965499089e-10 -0.4001068725585938
v 0.3804401550292969 -7.663462383789011e-09 -0.3794661865234375
v 0.4003690795898438 0.1483266296386719 -0.4001068725585938
v 0.4003690795898438 0.1483266296386719 -0.4001068725585938
v 0.4003690795898438 0.1483266296386719 -0.3794661865234375
v 0.4003690795898438 0.1483266296386719 -0.3794661865234375
v 0.3804401550292969 0.1483266296386719 -0.4001068725585938
v 0.3804401550292969 0.1483266296386719 -0.4001068725585938
v 0.3804401550292969 0.1483266296386719 -0.3794661865234375
v 0.3804401550292969 0.1483266296386719 -0.3794661865234375
v 1.205837065754167e-10 0.1483266754150391 2.296485718034091e-09
v -5.315759608492953e-09 0.4500000305175781 \
 3.803685785896961e-09
v 0.4499999389648438 0.14832666015625 5.188795356922405e-16
v 0.4499999389648438 0.45 1.507200749983895e-09
v 0.4499999389648438 0.14832666015625 5.188795356922405e-16
v 0.4499999389648438 0.45 1.507200749983895e-09
v 0.4499999389648438 0.1483266296386719 -0.4499999694824219
v 0.4499999389648438 0.4499999694824219 -0.4499999694824219
v 0.4499999389648438 0.1483266296386719 -0.4499999694824219
v 0.4499999389648438 0.4499999694824219 -0.4499999694824219
v 6.307011062745005e-09 0.1483266296386719 -0.4499999694824219
v 8.706677476766345e-10 0.4499999694824219 -0.4499999694824219
v 6.307011062745005e-09 0.1483266296386719 -0.4499999694824219
v 8.706677476766345e-10 0.4499999694824219 -0.4499999694824219
v 1.205837065754167e-10 0.1483266754150391 2.296485718034091e-09
v -5.315759608492953e-09 0.4500000305175781 \
 3.803685785896961e-09
v 1.205837065754167e-10 0.1483266754150391 2.296485718034091e-09
v 0.4499999389648438 0.14832666015625 5.188795356922405e-16
v 0.4499999389648438 0.1483266296386719 -0.4499999694824219
v 6.307011062745005e-09 0.1483266296386719 -0.4499999694824219
v -5.315759608492953e-09 0.4500000305175781 \
 3.803685785896961e-09
v 0.4499999389648438 0.45 1.507200749983895e-09
v 0.4499999389648438 0.4499999694824219 -0.4499999694824219
v 8.706677476766345e-10 0.4499999694824219 -0.4499999694824219
v 0.4003690795898438 0.1483266296386719 -0.4001068725585938
v 0.4003690795898438 0.1483266296386719 -0.3794661865234375
v 0.3804401550292969 0.1483266296386719 -0.4001068725585938
v 0.3804401550292969 0.1483266296386719 -0.3794661865234375
v 0.06955978393554688 0.14832666015625 -0.07053376770019532
v 0.06955978393554688 0.14832666015625 -0.04989308166503906
v 0.06173600769042969 0.14832666015625 -0.07053376770019532
v 0.04963084411621094 0.1483266754150391 -0.07053376770019532
v 0.04963084411621094 0.14832666015625 -0.04989308166503906
v 0.04963083648681641 7.673972959310049e-10 -0.04989308166503906
v 0.04963084411621094 0.14832666015625 -0.04989308166503906
v 0.06955976867675781 -5.829440965499089e-10 \
 -0.04989308166503906
v 0.06955978393554688 0.14832666015625 -0.04989308166503906
v 0.06955976867675781 -5.829440965499089e-10 \
 -0.04989308166503906
v 0.06955978393554688 0.14832666015625 -0.04989308166503906
v 0.06955976867675781 -7.663462383789011e-09 \
 -0.07053376770019532
v 0.06955978393554688 0.14832666015625 -0.07053376770019532
v 0.06955976867675781 -7.663462383789011e-09 \
 -0.07053376770019532
v 0.06955978393554688 0.14832666015625 -0.07053376770019532
v 0.04963083648681641 1.189314730254409e-09 -0.07053376770019532
v 0.04963084411621094 0.1483266754150391 -0.07053376770019532
v 0.06173600769042969 0.14832666015625 -0.07053376770019532
v 0.4001068725585938 0.14832666015625 -0.06955979919433594
v 0.4001068725585938 0.14832666015625 -0.049630859375
v 0.3794661865234375 0.14832666015625 -0.06955979919433594
v 0.3794661865234375 0.1483266754150391 -0.049630859375
v 0.3804401550292969 0.14832666015625 -0.06955980682373047
v 0.4001068725585938 0.14832666015625 -0.04989307403564453
v 0.3794661865234375 1.189314730254409e-09 -0.04963085174560547
v 0.3794661865234375 0.1483266754150391 -0.049630859375
v 0.4001068725585938 7.673972959310049e-10 -0.04963085174560547
v 0.4001068725585938 0.14832666015625 -0.049630859375
v 0.4001068725585938 7.673972959310049e-10 -0.04963085174560547
v 0.4001068725585938 0.14832666015625 -0.049630859375
v 0.4001068725585938 -5.829440965499089e-10 -0.06955978393554688
v 0.4001068725585938 0.14832666015625 -0.06955979919433594
v 0.4001068725585938 -5.829440965499089e-10 -0.06955978393554688
v 0.4001068725585938 0.14832666015625 -0.06955979919433594
v 0.3794661865234375 -7.663462383789011e-09 -0.06955978393554688
v 0.3794661865234375 0.14832666015625 -0.06955979919433594
v 0.3794661865234375 -7.663462383789011e-09 -0.06955978393554688
v 0.3794661865234375 0.14832666015625 -0.06955979919433594
v 0.3794661865234375 1.189314730254409e-09 -0.04963085174560547
v 0.3794661865234375 0.1483266754150391 -0.049630859375
v 0.3794661865234375 1.189314730254409e-09 -0.04963085174560547
v 0.4001068725585938 7.673972959310049e-10 -0.04963085174560547
v 0.4001068725585938 -5.829440965499089e-10 -0.06955978393554688
v 0.3794661865234375 -7.663462383789011e-09 -0.06955978393554688
v 0.3794661865234375 0.1483266754150391 -0.049630859375
v 0.4001068725585938 0.14832666015625 -0.049630859375
v 0.4001068725585938 0.14832666015625 -0.06955979919433594
v 0.3794661865234375 0.14832666015625 -0.06955979919433594
v 0.3804401550292969 0.14832666015625 -0.06955980682373047
v 0.4001068725585938 0.14832666015625 -0.04989307403564453
v 0.04989306640625 0.1483266296386719 -0.3804401550292969
v 0.07053375244140625 0.1483266296386719 -0.4003691101074219
v 0.07053375244140625 0.1483266296386719 -0.3804401550292969
v 0.04989306640625 0.1483266296386719 -0.4003691101074219
v 0.06955981445312501 0.1483266296386719 -0.3804401550292969
v 0.0693817367553711 0.1483266296386719 -0.3804401550292969
v 0.04989306640625 0.1483266296386719 -0.4001069030761719
v 0.04989306640625 0.1483266296386719 -0.3999788513183594
v 0.07053375244140625 1.189314730254409e-09 -0.4003691101074219
v 0.04989306640625 7.673972959310049e-10 -0.4003691101074219
v 0.04989306640625 7.673972959310049e-10 -0.4003691101074219
v 0.04989306640625 -5.829440965499089e-10 -0.380440185546875
v 0.04989306640625 -5.829440965499089e-10 -0.380440185546875
v 0.07053375244140625 -7.663462383789011e-09 -0.380440185546875
v 0.07053375244140625 -7.663462383789011e-09 -0.380440185546875
v 0.07053375244140625 1.189314730254409e-09 -0.4003691101074219
v 0.07053375244140625 1.189314730254409e-09 -0.4003691101074219
v 0.04989306640625 7.673972959310049e-10 -0.4003691101074219
v 0.04989306640625 -5.829440965499089e-10 -0.380440185546875
v 0.07053375244140625 -7.663462383789011e-09 -0.380440185546875
v 0.04989306640625 0.1483266296386719 -0.3804401550292969
v 0.04989306640625 0.1483266296386719 -0.3804401550292969
v 0.07053375244140625 0.1483266296386719 -0.4003691101074219
v 0.07053375244140625 0.1483266296386719 -0.4003691101074219
v 0.07053375244140625 0.1483266296386719 -0.3804401550292969
v 0.07053375244140625 0.1483266296386719 -0.3804401550292969
v 0.04989306640625 0.1483266296386719 -0.4003691101074219
v 0.04989306640625 0.1483266296386719 -0.4003691101074219
v 0.06955981445312501 0.1483266296386719 -0.3804401550292969
v 0.0693817367553711 0.1483266296386719 -0.3804401550292969
v 0.04989306640625 0.1483266296386719 -0.4001069030761719
v 0.04989306640625 0.1483266296386719 -0.3999788513183594
vt 0 0
vt 0.1353595107793808 0
vt 0.1353595107793808 0
vt 0.5 0
vt 0.5 0
vt 0.635359525680542 0
vt 0.635359525680542 0
vt 1 0
vt 0.3646405041217804 1
vt 0.3646405041217804 0.5887817740440369
vt 0 0.5887817740440369
vt 0 1
vt 0.1353595107793808 0.5887810587882996
vt 0.1353595107793808 0.5887810587882996
vt 0 0.5887809991836548
vt 1 0.5887809991836548
vt 0.5 0.5887810587882996
vt 0.5 0.5887810587882996
vt 0.635359525680542 0.5887810587882996
vt 0.635359525680542 0.5887810587882996
vt 0 0
vt 0 0.5887811779975891
vt 0.1353595107793808 0
vt 0.1353595107793808 0.5887811779975891
vt 0.1353595107793808 0
vt 0.1353595107793808 0.5887811779975891
vt 0.5 0
vt 0.5 0.5887811779975891
vt 0.5 0
vt 0.5 0.5887811779975891
vt 0.635359525680542 0
vt 0.635359525680542 0.5887811779975891
vt 0.635359525680542 0
vt 0.635359525680542 0.5887811779975891
vt 1 0
vt 1 0.5887811779975891
vt 0.3646405041217804 1
vt 0.3646405041217804 0.5887817740440369
vt 0 0.5887817740440369
vt 0 1
vt 1 0.5887817740440369
vt 1 1
vt 0.635359525680542 1
vt 0.635359525680542 0.5887817740440369
vt 0.04042898863554001 0.634135365486145
vt 0.05715439096093178 0.634135365486145
vt 0.04042898863554001 0.6523467302322388
vt 0.05715439096093178 0.6523468494415283
vt 0.3074861168861389 0.9364349842071533
vt 0.3242115378379822 0.9364349842071533
vt 0.3074861168861389 0.9435845613479614
vt 0.3074861168861389 0.9546464681625366
vt 0.3242115378379822 0.9546464085578918
vt 0.1353595107793808 0
vt 0.1353595107793808 0.5887811779975891
vt 0.5 0
vt 0.5 0.5887811779975891
vt 0.5 0
vt 0.5 0.5887811779975891
vt 0.635359525680542 0
vt 0.635359525680542 0.5887811779975891
vt 0.635359525680542 0
vt 0.635359525680542 0.5887811779975891
vt 1 0
vt 1 0.5887811779975891
vt 0.7785114645957947 0.5887811779975891
vt 0.3082753419876099 0.6343749761581421
vt 0.3244240283966064 0.6343749761581421
vt 0.3082753121852875 0.6532368063926697
vt 0.3244239985942841 0.6532368063926697
vt 0.3082753419876099 0.6523467898368835
vt 0.3242115378379822 0.6343749761581421
vt 0 0
vt 0 0.5887811779975891
vt 0.1353595107793808 0
vt 0.1353595107793808 0.5887811779975891
vt 0.1353595107793808 0
vt 0.1353595107793808 0.5887811779975891
vt 0.5 0
vt 0.5 0.5887811779975891
vt 0.5 0
vt 0.5 0.5887811779975891
vt 0.635359525680542 0
vt 0.635359525680542 0.5887811779975891
vt 0.635359525680542 0
vt 0.635359525680542 0.5887811779975891
vt 1 0
vt 1 0.5887811779975891
vt 0.3646405041217804 1
vt 0.3646405041217804 0.5887817740440369
vt 0 0.5887817740440369
vt 0 1
vt 1 0.5887817740440369
vt 1 1
vt 0.635359525680542 1
vt 0.635359525680542 0.5887817740440369
vt 0.6289724111557007 0.5887811779975891
vt 0.1401571929454803 0.5887811779975891
vt 0.05636516585946083 0.9544067978858948
vt 0.04021649435162544 0.9355449676513672
vt 0.05636517331004143 0.9355449676513672
vt 0.04021649807691574 0.9544068574905396
vt 0.05636517703533173 0.9364349842071533
vt 0.05636516585946083 0.9365977048873901
vt 0.04042896255850792 0.9544068574905396
vt 0.04053272679448128 0.9544067978858948
vt 0 0
vt 0.1353595107793808 0
vt 0.1353595107793808 0
vt 0.5 0
vt 0.5 0
vt 0.635359525680542 0
vt 0.635359525680542 0
vt 1 0
vt 0.3646405041217804 1
vt 0.3646405041217804 0.5887817740440369
vt 0 0.5887817740440369
vt 0 1
vt 0.5 0.5887810587882996
vt 0.5 0.5887810587882996
vt 0 0.5887809991836548
vt 1 0.5887809991836548
vt 0.635359525680542 0.5887810587882996
vt 0.635359525680542 0.5887810587882996
vt 0.1353595107793808 0.5887810587882996
vt 0.1353595107793808 0.5887810587882996
vt 0.6289725303649902 0.5887811183929443
vt 0.627804696559906 0.5887810587882996
vt 0.1401570290327072 0.5887810587882996
vt 0.1425001621246338 0.5887810587882996
vn 1 6.13784507663695e-08 7.285306580229189e-09
vn 1 6.13784507663695e-08 7.285306580229189e-09
vn -2.675432710930181e-07 -5.645455658509491e-08 -1
vn -2.675432710930181e-07 -5.645455658509491e-08 -1
vn -1 -6.13784507663695e-08 -7.285306580229189e-09
vn -1 -6.13784507663695e-08 -7.285306580229189e-09
vn 2.675432710930181e-07 5.645455658509491e-08 1
vn 2.675432710930181e-07 5.645455658509491e-08 1
vn 2.677352597402205e-07 -1 -4.313067236694224e-08
vn 2.677352597402205e-07 -1 -4.313067236694224e-08
vn 2.677352597402205e-07 -1 -4.313067236694224e-08
vn 2.677352597402205e-07 -1 -4.313067236694224e-08
vn 1 6.13784507663695e-08 7.285306580229189e-09
vn -2.675432710930181e-07 -5.645455658509491e-08 -1
vn 1 6.137844366094214e-08 7.285306580229189e-09
vn 2.675432710930181e-07 5.645455303238123e-08 1
vn -2.675432710930181e-07 -5.645455658509491e-08 -1
vn -1 -6.13784507663695e-08 -7.285306580229189e-09
vn -1 -6.137844366094214e-08 -7.285306580229189e-09
vn 2.675432710930181e-07 5.645455658509491e-08 1
vn 5.103301337072708e-09 -4.996133284862481e-09 1
vn 5.103301337072708e-09 -4.996133284862481e-09 1
vn 5.103301337072708e-09 -4.996133284862481e-09 1
vn 5.103301337072708e-09 -4.996133284862481e-09 1
vn 1 1.802062854494579e-08 1.374761460226637e-08
vn 1 1.802062854494579e-08 1.374761460226637e-08
vn 1 1.802062854494579e-08 1.374761460226637e-08
vn 1 1.802062854494579e-08 1.374761460226637e-08
vn -5.103301337072708e-09 4.996133284862481e-09 -1
vn -5.103301337072708e-09 4.996133284862481e-09 -1
vn -5.103301337072708e-09 4.996133284862481e-09 -1
vn -5.103301337072708e-09 4.996133284862481e-09 -1
vn -1 -1.802062854494579e-08 -1.374761460226637e-08
vn -1 -1.802062854494579e-08 -1.374761460226637e-08
vn -1 -1.802062854494579e-08 -1.374761460226637e-08
vn -1 -1.802062854494579e-08 -1.374761460226637e-08
vn -2.797789377950721e-08 -1 8.582919264199518e-08
vn -2.797789377950721e-08 -1 8.582919264199518e-08
vn -2.797789377950721e-08 -1 8.582919264199518e-08
vn -2.797789377950721e-08 -1 8.582919264199518e-08
vn 2.797789377950721e-08 1 -8.582919264199518e-08
vn 2.797789377950721e-08 1 -8.582919264199518e-08
vn 2.797789377950721e-08 1 -8.582919264199518e-08
vn 2.797789377950721e-08 1 -8.582919264199518e-08
vn -2.797789377950721e-08 -1 8.582919264199518e-08
vn -2.797789377950721e-08 -1 8.582919264199518e-08
vn -2.797789377950721e-08 -1 8.582918553656782e-08
vn -2.797789555586405e-08 -1 8.582919264199518e-08
vn -2.797789377950721e-08 -1 8.582919264199518e-08
vn -2.797789200315037e-08 -1 8.582919264199518e-08
vn -2.797789377950721e-08 -1 8.582919974742254e-08
vn -2.797789377950721e-08 -1 8.582919974742254e-08
vn -2.797789377950721e-08 -1 8.582919264199518e-08
vn 2.675432710930181e-07 -5.645455658509491e-08 1
vn 2.675432710930181e-07 -5.645455658509491e-08 1
vn 2.675432710930181e-07 -5.645455658509491e-08 1
vn 2.675432710930181e-07 -5.645455658509491e-08 1
vn 1 -6.13784507663695e-08 7.285306580229189e-09
vn 1 -6.13784507663695e-08 7.285306580229189e-09
vn 1 -6.13784507663695e-08 7.285306580229189e-09
vn 1 -6.13784507663695e-08 7.285306580229189e-09
vn -2.675432710930181e-07 5.645455658509491e-08 -1
vn -2.675432710930181e-07 5.645455658509491e-08 -1
vn -2.675432710930181e-07 5.645455658509491e-08 -1
vn -2.675432710930181e-07 5.645455658509491e-08 -1
vn -2.675432710930181e-07 5.645456013780858e-08 -1
vn -2.797789377950721e-08 -1 8.582919974742254e-08
vn -2.797789377950721e-08 -1 8.582918553656782e-08
vn -2.797789200315037e-08 -1 8.582919264199518e-08
vn -2.797789377950721e-08 -1 8.582919264199518e-08
vn -2.797789377950721e-08 -1 8.582918553656782e-08
vn -2.797789377950721e-08 -1 8.582919264199518e-08
vn -7.285306580229189e-09 6.13784507663695e-08 1
vn -7.285306580229189e-09 6.13784507663695e-08 1
vn -7.285306580229189e-09 6.13784507663695e-08 1
vn -7.285306580229189e-09 6.13784507663695e-08 1
vn 1 -5.645455658509491e-08 -2.675432710930181e-07
vn 1 -5.645455658509491e-08 -2.675432710930181e-07
vn 1 -5.645455658509491e-08 -2.675432710930181e-07
vn 1 -5.645455658509491e-08 -2.675432710930181e-07
vn 7.285306580229189e-09 -6.13784507663695e-08 -1
vn 7.285306580229189e-09 -6.13784507663695e-08 -1
vn 7.285306580229189e-09 -6.13784507663695e-08 -1
vn 7.285306580229189e-09 -6.13784507663695e-08 -1
vn -1 5.645455658509491e-08 2.675432710930181e-07
vn -1 5.645455658509491e-08 2.675432710930181e-07
vn -1 5.645455658509491e-08 2.675432710930181e-07
vn -1 5.645455658509491e-08 2.675432710930181e-07
vn 4.313067236694224e-08 -1 2.677352597402205e-07
vn 4.313067236694224e-08 -1 2.677352597402205e-07
vn 4.313067236694224e-08 -1 2.677352597402205e-07
vn 4.313067236694224e-08 -1 2.677352597402205e-07
vn -4.313067236694224e-08 1 -2.677352597402205e-07
vn -4.313067236694224e-08 1 -2.677352597402205e-07
vn -4.313067236694224e-08 1 -2.677352597402205e-07
vn -4.313067236694224e-08 1 -2.677352597402205e-07
vn 7.285306580229189e-09 -6.137845787179685e-08 -1
vn 1 -5.645455658509491e-08 -2.675432710930181e-07
vn -2.797789200315037e-08 -1 8.582919264199518e-08
vn -2.797789377950721e-08 -1 8.582919974742254e-08
vn -2.797789377950721e-08 -1 8.582919264199518e-08
vn -2.797789555586405e-08 -1 8.582919264199518e-08
vn -2.797789377950721e-08 -1 8.582919264199518e-08
vn -2.797789377950721e-08 -1 8.582919264199518e-08
vn -2.797789555586405e-08 -1 8.582919264199518e-08
vn -2.797789200315037e-08 -1 8.582918553656782e-08
vn 7.285306580229189e-09 6.13784507663695e-08 -1
vn 7.285306580229189e-09 6.13784507663695e-08 -1
vn -1 -5.645455658509491e-08 2.675432710930181e-07
vn -1 -5.645455658509491e-08 2.675432710930181e-07
vn -7.285306580229189e-09 -6.13784507663695e-08 1
vn -7.285306580229189e-09 -6.13784507663695e-08 1
vn 1 5.645455658509491e-08 -2.675432710930181e-07
vn 1 5.645455658509491e-08 -2.675432710930181e-07
vn -4.313067236694224e-08 -1 -2.677352597402205e-07
vn -4.313067236694224e-08 -1 -2.677352597402205e-07
vn -4.313067236694224e-08 -1 -2.677352597402205e-07
vn -4.313067236694224e-08 -1 -2.677352597402205e-07
vn -1 -5.645455658509491e-08 2.675432710930181e-07
vn -7.285306580229189e-09 -6.137844366094214e-08 1
vn 7.285306580229189e-09 6.137844366094214e-08 -1
vn 1 5.645455658509491e-08 -2.675432710930181e-07
vn -7.285306580229189e-09 -6.137844366094214e-08 1
vn 1 5.645455658509491e-08 -2.675432710930181e-07
vn 7.285306580229189e-09 6.13784507663695e-08 -1
vn -1 -5.645455658509491e-08 2.675432710930181e-07
vn -7.285306580229189e-09 -6.13784507663695e-08 1
vn -7.285307024318399e-09 -6.13784507663695e-08 1
vn -1 -5.645455658509491e-08 2.675432710930181e-07
vn -1 -5.645455658509491e-08 2.675432710930181e-07
f 122/122/122 124/124/124 114/114/114
f 124/124/124 113/113/113 114/114/114
f 123/123/123 127/127/127 112/112/112
f 127/127/127 128/128/128 112/112/112
f 112/112/112 128/128/128 111/111/111
f 128/128/128 120/120/120 111/111/111
f 110/110/110 119/119/119 130/130/130
f 109/109/109 130/130/130 129/129/129
f 110/110/110 130/130/130 109/109/109
f 129/129/129 126/126/126 109/109/109
f 108/108/108 125/125/125 107/107/107
f 125/125/125 121/121/121 107/107/107
f 118/118/118 117/117/117 116/116/116
f 116/116/116 115/115/115 118/118/118
f 40/40/40 105/105/105 106/106/106
f 104/104/104 103/103/103 69/69/69
f 103/103/103 71/71/71 69/69/69
f 99/99/99 104/104/104 49/49/49
f 49/49/49 104/104/104 69/69/69
f 49/49/49 40/40/40 99/99/99
f 99/99/99 40/40/40 106/106/106
f 100/100/100 48/48/48 101/101/101
f 71/71/71 103/103/103 101/101/101
f 101/101/101 48/48/48 71/71/71
f 48/48/48 100/100/100 40/40/40
f 102/102/102 105/105/105 40/40/40
f 40/40/40 100/100/100 102/102/102
f 65/65/65 66/66/66 64/64/64
f 63/63/63 62/62/62 66/66/66
f 58/58/58 60/60/60 61/61/61 59/59/59
f 54/54/54 56/56/56 57/57/57 55/55/55
f 51/51/51 52/52/52 40/40/40
f 49/49/49 51/51/51 40/40/40
f 52/52/52 53/53/53 37/37/37
f 53/53/53 50/50/50 37/37/37
f 50/50/50 49/49/49 38/38/38
f 37/37/37 40/40/40 52/52/52
f 38/38/38 37/37/37 50/50/50
f 10/10/10 9/9/9 12/12/12
f 12/12/12 11/11/11 10/10/10
f 13/13/13 15/15/15 1/1/1
f 2/2/2 13/13/13 1/1/1
f 14/14/14 3/3/3 4/4/4
f 17/17/17 14/14/14 4/4/4
f 19/19/19 18/18/18 5/5/5
f 6/6/6 19/19/19 5/5/5
f 20/20/20 7/7/7 8/8/8
f 16/16/16 20/20/20 8/8/8
f 21/21/21 23/23/23 24/24/24 22/22/22
f 25/25/25 27/27/27 28/28/28 26/26/26
f 29/29/29 31/31/31 32/32/32 30/30/30
f 33/33/33 35/35/35 36/36/36 34/34/34
f 42/42/42 44/44/44 41/41/41
f 44/44/44 42/42/42 43/43/43
f 48/48/48 40/40/40 47/47/47
f 39/39/39 47/47/47 40/40/40
f 46/46/46 45/45/45 39/39/39
f 47/47/47 39/39/39 45/45/45
f 48/48/48 46/46/46 38/38/38
f 39/39/39 38/38/38 46/46/46
f 70/70/70 49/49/49 69/69/69
f 69/69/69 71/71/71 70/70/70
f 68/68/68 72/72/72 38/38/38
f 38/38/38 70/70/70 68/68/68
f 72/72/72 68/68/68 70/70/70
f 70/70/70 38/38/38 49/49/49
f 67/67/67 38/38/38 72/72/72
f 48/48/48 38/38/38 67/67/67
f 67/67/67 71/71/71 48/48/48
f 90/90/90 89/89/89 92/92/92
f 92/92/92 91/91/91 90/90/90
f 94/94/94 96/96/96 93/93/93
f 96/96/96 94/94/94 95/95/95
f 73/73/73 75/75/75 76/76/76 74/74/74
f 98/98/98 77/77/77 79/79/79
f 77/77/77 98/98/98 78/78/78
f 79/79/79 80/80/80 98/98/98
f 97/97/97 81/81/81 83/83/83
f 81/81/81 97/97/97 82/82/82
f 83/83/83 84/84/84 97/97/97
f 85/85/85 87/87/87 88/88/88 86/86/86
