# Rhino

g object_1
v 0.4889852106571198 -0.03958004340529442 0
v 0.4889852106571198 -0.03958004340529442 4.534295082092285
v 0.4889852106571198 7.182416439056396 0
v 0.4889852106571198 7.182416439056396 4.534295082092285
v 0.4889852106571198 7.182416439056396 0
v 0.4889852106571198 7.182416439056396 4.534295082092285
v 1.963900089263916 7.182416439056396 0
v 1.963900089263916 7.182416439056396 4.534295082092285
v 1.963900089263916 7.182416439056396 0
v 1.963900089263916 7.182416439056396 4.534295082092285
v 1.963900089263916 -0.03958004340529442 0
v 1.963900089263916 -0.03958004340529442 4.534295082092285
vt 0 0
vt 0 1
vt 0.4536741077899933 0
vt 0.4536741077899933 1
vt 0.4536741077899933 0
vt 0.4536741077899933 1
vt 0.5463258624076843 0
vt 0.5463258624076843 1
vt 0.5463258624076843 0
vt 0.5463258624076843 1
vt 1 0
vt 1 1
vn 1 0 0
vn 1 0 0
vn 1 0 0
vn 1 0 0
vn 0 -1 0
vn 0 -1 0
vn 0 -1 0
vn 0 -1 0
vn -1 0 0
vn -1 0 0
vn -1 0 0
vn -1 0 0
f 1/1/1 3/3/3 4/4/4 2/2/2
f 5/5/5 7/7/7 8/8/8 6/6/6
f 9/9/9 11/11/11 12/12/12 10/10/10
