# Rhino

o object_1
v 0.4548107385635376 0 -18.35465621948242
v 0.4548107385635376 4.964463233947754 -18.35465621948242
v 0.4548107385635376 0 -18.29255676269531
v 0.4548107385635376 4.964463233947754 -18.29255676269531
v 0.4548107385635376 0 -18.29255676269531
v 0.4548107385635376 4.964463233947754 -18.29255676269531
v 2.053851127624512 0 -18.29255676269531
v 2.053851127624512 4.964463233947754 -18.29255676269531
v 2.053851127624512 0 -18.29255676269531
v 2.053851127624512 4.964463233947754 -18.29255676269531
v 2.053851127624512 0 -18.35465621948242
v 2.053851127624512 4.964463233947754 -18.35465621948242
v 2.053851127624512 0 -18.35465621948242
v 2.053851127624512 4.964463233947754 -18.35465621948242
v 0.4548107385635376 0 -18.35465621948242
v 0.4548107385635376 4.964463233947754 -18.35465621948242
v 0.4548107385635376 0 -18.35465621948242
v 0.4548107385635376 0 -18.29255676269531
v 2.053851127624512 0 -18.29255676269531
v 2.053851127624512 0 -18.35465621948242
v 0.4548107385635376 4.964463233947754 -18.35465621948242
v 0.4548107385635376 4.964463233947754 -18.29255676269531
v 2.053851127624512 4.964463233947754 -18.29255676269531
v 2.053851127624512 4.964463233947754 -18.35465621948242
vt 0 0
vt 0 1
vt 0.01835478469729424 0
vt 0.01835478469729424 1
vt 0.01835478469729424 0
vt 0.01835478469729424 1
vt 0.4909905195236206 0
vt 0.4909905195236206 1
vt 0.4909905195236206 0
vt 0.4909905195236206 1
vt 0.5093452930450439 0
vt 0.5093452930450439 1
vt 0.5093452930450439 0
vt 0.5093452930450439 1
vt 0.9819810390472412 0
vt 0.9819810390472412 1
vt 1 0
vt 0.9819819927215576 0
vt 0.9819819927215576 0.3220973312854767
vt 1 0.3220973312854767
vt 1 1
vt 0.9819819927215576 1
vt 0.9819819927215576 0.6779026389122009
vt 1 0.6779026389122009
vn -1 0 0
vn -1 0 0
vn -1 0 0
vn -1 0 0
vn 0 0 1
vn 0 0 1
vn 0 0 1
vn 0 0 1
vn 1 0 0
vn 1 0 0
vn 1 0 0
vn 1 0 0
vn 0 0 -1
vn 0 0 -1
vn 0 0 -1
vn 0 0 -1
vn 0 -1 0
vn 0 -1 0
vn 0 -1 0
vn 0 -1 0
vn 0 1 0
vn 0 1 0
vn 0 1 0
vn 0 1 0
f 1/1/1 3/3/3 4/4/4 2/2/2
f 5/5/5 7/7/7 8/8/8 6/6/6
f 9/9/9 11/11/11 12/12/12 10/10/10
f 13/13/13 15/15/15 16/16/16 14/14/14
f 17/17/17 20/20/20 19/19/19
f 19/19/19 18/18/18 17/17/17
f 21/21/21 23/23/23 24/24/24
f 23/23/23 21/21/21 22/22/22
o object_2
v 1.968002438545227 -0.003188530681654811 -9.617877960205078
v 1.968002438545227 -0.003188530681654811 -18.35463523864746
v 1.968002438545227 4.986218452453613 -9.617877960205078
v 1.968002438545227 4.986218452453613 -18.35463523864746
v 1.968002438545227 4.986218452453613 -9.617877960205078
v 1.968002438545227 4.986218452453613 -18.35463523864746
v 2.054562330245972 4.986218452453613 -9.617877960205078
v 2.054562330245972 4.986218452453613 -18.35463523864746
v 2.054562330245972 4.986218452453613 -9.617877960205078
v 2.054562330245972 4.986218452453613 -18.35463523864746
v 2.054562330245972 -0.003188530681654811 -9.617877960205078
v 2.054562330245972 -0.003188530681654811 -18.35463523864746
v 2.054562330245972 -0.003188530681654811 -9.617877960205078
v 2.054562330245972 -0.003188530681654811 -18.35463523864746
v 1.968002438545227 -0.003188530681654811 -9.617877960205078
v 1.968002438545227 -0.003188530681654811 -18.35463523864746
v 1.968002438545227 -0.003188530681654811 -9.617877960205078
v 1.968002438545227 4.986218452453613 -9.617877960205078
v 2.054562330245972 4.986218452453613 -9.617877960205078
v 2.054562330245972 -0.003188530681654811 -9.617877960205078
v 1.968002438545227 -0.003188530681654811 -18.35463523864746
v 1.968002438545227 4.986218452453613 -18.35463523864746
v 2.054562330245972 4.986218452453613 -18.35463523864746
v 2.054562330245972 -0.003188530681654811 -18.35463523864746
vt 0 0
vt 0 0.9902839660644531
vt 0.4914735555648804 0
vt 0.4914735555648804 0.9902839660644531
vt 0.4914735555648804 0
vt 0.4914735555648804 0.9902839660644531
vt 0.5 0
vt 0.5 0.9902839660644531
vt 0.5 0
vt 0.5 0.9902839660644531
vt 0.9914735555648804 0
vt 0.9914735555648804 0.9902839660644531
vt 0.9914735555648804 0
vt 0.9914735555648804 0.9902839660644531
vt 1 0
vt 1 0.9902839660644531
vt 0.4914735555648804 0.9902849793434143
vt 0 0.9902849793434143
vt 0 1
vt 0.4914735555648804 1
vt 1 1
vt 0.5085264444351196 1
vt 0.5085264444351196 0.9902849793434143
vt 1 0.9902849793434143
vn -1 0 0
vn -1 0 0
vn -1 0 0
vn -1 0 0
vn 0 1 0
vn 0 1 0
vn 0 1 0
vn 0 1 0
vn 1 0 0
vn 1 0 0
vn 1 0 0
vn 1 0 0
vn 0 -1 0
vn 0 -1 0
vn 0 -1 0
vn 0 -1 0
vn 0 0 1
vn 0 0 1
vn 0 0 1
vn 0 0 1
vn 0 0 -1
vn 0 0 -1
vn 0 0 -1
vn 0 0 -1
f 25/25/25 27/27/27 28/28/28 26/26/26
f 29/29/29 31/31/31 32/32/32 30/30/30
f 33/33/33 35/35/35 36/36/36 34/34/34
f 37/37/37 39/39/39 40/40/40 38/38/38
f 41/41/41 44/44/44 43/43/43
f 43/43/43 42/42/42 41/41/41
f 45/45/45 47/47/47 48/48/48
f 47/47/47 45/45/45 46/46/46
o object_3
v 0.4516642689704895 -0.003188530681654811 -9.617877960205078
v 0.4516642689704895 -0.003188530681654811 -18.35463523864746
v 0.4516642689704895 4.986218452453613 -9.617877960205078
v 0.4516642689704895 4.986218452453613 -18.35463523864746
v 0.4516642689704895 4.986218452453613 -9.617877960205078
v 0.4516642689704895 4.986218452453613 -18.35463523864746
v 0.5382242202758789 4.986218452453613 -9.617877960205078
v 0.5382242202758789 4.986218452453613 -18.35463523864746
v 0.5382242202758789 4.986218452453613 -9.617877960205078
v 0.5382242202758789 4.986218452453613 -18.35463523864746
v 0.5382242202758789 -0.003188530681654811 -9.617877960205078
v 0.5382242202758789 -0.003188530681654811 -18.35463523864746
v 0.5382242202758789 -0.003188530681654811 -9.617877960205078
v 0.5382242202758789 -0.003188530681654811 -18.35463523864746
v 0.4516642689704895 -0.003188530681654811 -9.617877960205078
v 0.4516642689704895 -0.003188530681654811 -18.35463523864746
v 0.4516642689704895 -0.003188530681654811 -9.617877960205078
v 0.4516642689704895 4.986218452453613 -9.617877960205078
v 0.5382242202758789 4.986218452453613 -9.617877960205078
v 0.5382242202758789 -0.003188530681654811 -9.617877960205078
v 0.4516642689704895 -0.003188530681654811 -18.35463523864746
v 0.4516642689704895 4.986218452453613 -18.35463523864746
v 0.5382242202758789 4.986218452453613 -18.35463523864746
v 0.5382242202758789 -0.003188530681654811 -18.35463523864746
vt 0 0
vt 0 0.9902839660644531
vt 0.4914735555648804 0
vt 0.4914735555648804 0.9902839660644531
vt 0.4914735555648804 0
vt 0.4914735555648804 0.9902839660644531
vt 0.5 0
vt 0.5 0.9902839660644531
vt 0.5 0
vt 0.5 0.9902839660644531
vt 0.9914735555648804 0
vt 0.9914735555648804 0.9902839660644531
vt 0.9914735555648804 0
vt 0.9914735555648804 0.9902839660644531
vt 1 0
vt 1 0.9902839660644531
vt 0.4914735555648804 0.9902849793434143
vt 0 0.9902849793434143
vt 0 1
vt 0.4914735555648804 1
vt 1 1
vt 0.5085264444351196 1
vt 0.5085264444351196 0.9902849793434143
vt 1 0.9902849793434143
vn -1 0 0
vn -1 0 0
vn -1 0 0
vn -1 0 0
vn 0 1 0
vn 0 1 0
vn 0 1 0
vn 0 1 0
vn 1 0 0
vn 1 0 0
vn 1 0 0
vn 1 0 0
vn 0 -1 0
vn 0 -1 0
vn 0 -1 0
vn 0 -1 0
vn 0 0 1
vn 0 0 1
vn 0 0 1
vn 0 0 1
vn 0 0 -1
vn 0 0 -1
vn 0 0 -1
vn 0 0 -1
f 49/49/49 51/51/51 52/52/52 50/50/50
f 53/53/53 55/55/55 56/56/56 54/54/54
f 57/57/57 59/59/59 60/60/60 58/58/58
f 61/61/61 63/63/63 64/64/64 62/62/62
f 65/65/65 68/68/68 67/67/67
f 67/67/67 66/66/66 65/65/65
f 69/69/69 71/71/71 72/72/72
f 71/71/71 69/69/69 70/70/70
