# 3ds Max Wavefront OBJ Exporter v0.97b - (c)2007 guruware
# File Created: 23.09.2017 01:21:39

newmtl Leggio
	Ns 28.000000
	Ni 1.500000
	d 1.000000
	Tr 0.000000
	Tf 1.000000 1.000000 1.000000 
	illum 2
	Ka 0.588235 0.588235 0.588235
	Kd 0.588235 0.588235 0.588235
	Ks 0.999000 0.999000 0.999000
	Ke 0.000000 0.000000 0.000000
	map_Ka E:\SK Hentry\Leggio\end1\LeggioCompleteMap.jpg
	map_Kd E:\SK Hentry\Leggio\end1\LeggioCompleteMap.jpg
	map_bump Map__38_Normal_Bump.tga
